{
  "page": 1,
  "per_page": 10,
  "photos": [
    {
      "id": 1272328,
      "width": 6000,
      "height": 4000,
      "url": "https://www.pexels.com/photo/person-wearing-pair-of-black-slides-1272328/",
      "photographer": "Lisa Fotios",
      "photographer_url": "https://www.pexels.com/@fotios-photos",
      "photographer_id": 26735,
      "avg_color": "#858580",
      "src": {
        "original": "https://images.pexels.com/photos/1272328/pexels-photo-1272328.jpeg",
        "large2x": "https://images.pexels.com/photos/1272328/pexels-photo-1272328.jpeg?auto=compress&cs=tinysrgb&dpr=2&h=650&w=940",
        "large": "https://images.pexels.com/photos/1272328/pexels-photo-1272328.jpeg?auto=compress&cs=tinysrgb&h=650&w=940",
        "medium": "https://images.pexels.com/photos/1272328/pexels-photo-1272328.jpeg?auto=compress&cs=tinysrgb&h=350",
        "small": "https://images.pexels.com/photos/1272328/pexels-photo-1272328.jpeg?auto=compress&cs=tinysrgb&h=130",
        "portrait": "https://images.pexels.com/photos/1272328/pexels-photo-1272328.jpeg?auto=compress&cs=tinysrgb&fit=crop&h=1200&w=800",
        "landscape": "https://images.pexels.com/photos/1272328/pexels-photo-1272328.jpeg?auto=compress&cs=tinysrgb&fit=crop&h=627&w=1200",
        "tiny": "https://images.pexels.com/photos/1272328/pexels-photo-1272328.jpeg?auto=compress&cs=tinysrgb&dpr=1&fit=crop&h=200&w=280"
      },
      "liked": false,
      "alt": "Person Wearing Pair of Black Slides"
    },
    {
      "id": 236699,
      "width": 4000,
      "height": 4956,
      "url": "https://www.pexels.com/photo/blur-close-up-coffee-coffee-cup-236699/",
      "photographer": "Pixabay",
      "photographer_url": "https://www.pexels.com/@pixabay",
      "photographer_id": 2659,
      "avg_color": "#3C4136",
      "src": {
        "original": "https://images.pexels.com/photos/236699/pexels-photo-236699.jpeg",
        "large2x": "https://images.pexels.com/photos/236699/pexels-photo-236699.jpeg?auto=compress&cs=tinysrgb&dpr=2&h=650&w=940",
        "large": "https://images.pexels.com/photos/236699/pexels-photo-236699.jpeg?auto=compress&cs=tinysrgb&h=650&w=940",
        "medium": "https://images.pexels.com/photos/236699/pexels-photo-236699.jpeg?auto=compress&cs=tinysrgb&h=350",
        "small": "https://images.pexels.com/photos/236699/pexels-photo-236699.jpeg?auto=compress&cs=tinysrgb&h=130",
        "portrait": "https://images.pexels.com/photos/236699/pexels-photo-236699.jpeg?auto=compress&cs=tinysrgb&fit=crop&h=1200&w=800",
        "landscape": "https://images.pexels.com/photos/236699/pexels-photo-236699.jpeg?auto=compress&cs=tinysrgb&fit=crop&h=627&w=1200",
        "tiny": "https://images.pexels.com/photos/236699/pexels-photo-236699.jpeg?auto=compress&cs=tinysrgb&dpr=1&fit=crop&h=200&w=280"
      },
      "liked": false,
      "alt": "Green Ceramic Mug on Person's Feet"
    },
    {
      "id": 1471991,
      "width": 6000,
      "height": 4000,
      "url": "https://www.pexels.com/photo/person-laying-on-sofa-while-reading-book-1471991/",
      "photographer": "Lisa Fotios",
      "photographer_url": "https://www.pexels.com/@fotios-photos",
      "photographer_id": 26735,
      "avg_color": "#928D8B",
      "src": {
        "original": "https://images.pexels.com/photos/1471991/pexels-photo-1471991.jpeg",
        "large2x": "https://images.pexels.com/photos/1471991/pexels-photo-1471991.jpeg?auto=compress&cs=tinysrgb&dpr=2&h=650&w=940",
        "large": "https://images.pexels.com/photos/1471991/pexels-photo-1471991.jpeg?auto=compress&cs=tinysrgb&h=650&w=940",
        "medium": "https://images.pexels.com/photos/1471991/pexels-photo-1471991.jpeg?auto=compress&cs=tinysrgb&h=350",
        "small": "https://images.pexels.com/photos/1471991/pexels-photo-1471991.jpeg?auto=compress&cs=tinysrgb&h=130",
        "portrait": "https://images.pexels.com/photos/1471991/pexels-photo-1471991.jpeg?auto=compress&cs=tinysrgb&fit=crop&h=1200&w=800",
        "landscape": "https://images.pexels.com/photos/1471991/pexels-photo-1471991.jpeg?auto=compress&cs=tinysrgb&fit=crop&h=627&w=1200",
        "tiny": "https://images.pexels.com/photos/1471991/pexels-photo-1471991.jpeg?auto=compress&cs=tinysrgb&dpr=1&fit=crop&h=200&w=280"
      },
      "liked": false,
      "alt": "Person Laying on Sofa While Reading Book"
    },
    {
      "id": 258330,
      "width": 3264,
      "height": 2448,
      "url": "https://www.pexels.com/photo/high-angle-view-of-lying-down-on-grass-258330/",
      "photographer": "Pixabay",
      "photographer_url": "https://www.pexels.com/@pixabay",
      "photographer_id": 2659,
      "avg_color": "#66893D",
      "src": {
        "original": "https://images.pexels.com/photos/258330/pexels-photo-258330.jpeg",
        "large2x": "https://images.pexels.com/photos/258330/pexels-photo-258330.jpeg?auto=compress&cs=tinysrgb&dpr=2&h=650&w=940",
        "large": "https://images.pexels.com/photos/258330/pexels-photo-258330.jpeg?auto=compress&cs=tinysrgb&h=650&w=940",
        "medium": "https://images.pexels.com/photos/258330/pexels-photo-258330.jpeg?auto=compress&cs=tinysrgb&h=350",
        "small": "https://images.pexels.com/photos/258330/pexels-photo-258330.jpeg?auto=compress&cs=tinysrgb&h=130",
        "portrait": "https://images.pexels.com/photos/258330/pexels-photo-258330.jpeg?auto=compress&cs=tinysrgb&fit=crop&h=1200&w=800",
        "landscape": "https://images.pexels.com/photos/258330/pexels-photo-258330.jpeg?auto=compress&cs=tinysrgb&fit=crop&h=627&w=1200",
        "tiny": "https://images.pexels.com/photos/258330/pexels-photo-258330.jpeg?auto=compress&cs=tinysrgb&dpr=1&fit=crop&h=200&w=280"
      },
      "liked": false,
      "alt": "High Angle View of Lying Down on Grass"
    },
    {
      "id": 1056251,
      "width": 5184,
      "height": 3456,
      "url": "https://www.pexels.com/photo/close-up-photography-of-sleeping-tabby-cat-1056251/",
      "photographer": "Ihsan Adityawarman",
      "photographer_url": "https://www.pexels.com/@ihsanaditya",
      "photographer_id": 393334,
      "avg_color": "#908478",
      "src": {
        "original": "https://images.pexels.com/photos/1056251/pexels-photo-1056251.jpeg",
        "large2x": "https://images.pexels.com/photos/1056251/pexels-photo-1056251.jpeg?auto=compress&cs=tinysrgb&dpr=2&h=650&w=940",
        "large": "https://images.pexels.com/photos/1056251/pexels-photo-1056251.jpeg?auto=compress&cs=tinysrgb&h=650&w=940",
        "medium": "https://images.pexels.com/photos/1056251/pexels-photo-1056251.jpeg?auto=compress&cs=tinysrgb&h=350",
        "small": "https://images.pexels.com/photos/1056251/pexels-photo-1056251.jpeg?auto=compress&cs=tinysrgb&h=130",
        "portrait": "https://images.pexels.com/photos/1056251/pexels-photo-1056251.jpeg?auto=compress&cs=tinysrgb&fit=crop&h=1200&w=800",
        "landscape": "https://images.pexels.com/photos/1056251/pexels-photo-1056251.jpeg?auto=compress&cs=tinysrgb&fit=crop&h=627&w=1200",
        "tiny": "https://images.pexels.com/photos/1056251/pexels-photo-1056251.jpeg?auto=compress&cs=tinysrgb&dpr=1&fit=crop&h=200&w=280"
      },
      "liked": false,
      "alt": "Close-Up Photography of Sleeping Tabby Cat"
    },
    {
      "id": 1028741,
      "width": 6000,
      "height": 4000,
      "url": "https://www.pexels.com/photo/photo-of-person-holding-alarm-clock-1028741/",
      "photographer": "Acharaporn Kamornboonyarush",
      "photographer_url": "https://www.pexels.com/@feelartfeelant",
      "photographer_id": 385956,
      "avg_color": "#908376",
      "src": {
        "original": "https://images.pexels.com/photos/1028741/pexels-photo-1028741.jpeg",
        "large2x": "https://images.pexels.com/photos/1028741/pexels-photo-1028741.jpeg?auto=compress&cs=tinysrgb&dpr=2&h=650&w=940",
        "large": "https://images.pexels.com/photos/1028741/pexels-photo-1028741.jpeg?auto=compress&cs=tinysrgb&h=650&w=940",
        "medium": "https://images.pexels.com/photos/1028741/pexels-photo-1028741.jpeg?auto=compress&cs=tinysrgb&h=350",
        "small": "https://images.pexels.com/photos/1028741/pexels-photo-1028741.jpeg?auto=compress&cs=tinysrgb&h=130",
        "portrait": "https://images.pexels.com/photos/1028741/pexels-photo-1028741.jpeg?auto=compress&cs=tinysrgb&fit=crop&h=1200&w=800",
        "landscape": "https://images.pexels.com/photos/1028741/pexels-photo-1028741.jpeg?auto=compress&cs=tinysrgb&fit=crop&h=627&w=1200",
        "tiny": "https://images.pexels.com/photos/1028741/pexels-photo-1028741.jpeg?auto=compress&cs=tinysrgb&dpr=1&fit=crop&h=200&w=280"
      },
      "liked": false,
      "alt": "Photo of Person Holding Alarm Clock"
    },
    {
      "id": 271897,
      "width": 3075,
      "height": 2038,
      "url": "https://www.pexels.com/photo/alone-bed-bedroom-blur-271897/",
      "photographer": "Pixabay",
      "photographer_url": "https://www.pexels.com/@pixabay",
      "photographer_id": 2659,
      "avg_color": "#C6B38C",
      "src": {
        "original": "https://images.pexels.com/photos/271897/pexels-photo-271897.jpeg",
        "large2x": "https://images.pexels.com/photos/271897/pexels-photo-271897.jpeg?auto=compress&cs=tinysrgb&dpr=2&h=650&w=940",
        "large": "https://images.pexels.com/photos/271897/pexels-photo-271897.jpeg?auto=compress&cs=tinysrgb&h=650&w=940",
        "medium": "https://images.pexels.com/photos/271897/pexels-photo-271897.jpeg?auto=compress&cs=tinysrgb&h=350",
        "small": "https://images.pexels.com/photos/271897/pexels-photo-271897.jpeg?auto=compress&cs=tinysrgb&h=130",
        "portrait": "https://images.pexels.com/photos/271897/pexels-photo-271897.jpeg?auto=compress&cs=tinysrgb&fit=crop&h=1200&w=800",
        "landscape": "https://images.pexels.com/photos/271897/pexels-photo-271897.jpeg?auto=compress&cs=tinysrgb&fit=crop&h=627&w=1200",
        "tiny": "https://images.pexels.com/photos/271897/pexels-photo-271897.jpeg?auto=compress&cs=tinysrgb&dpr=1&fit=crop&h=200&w=280"
      },
      "liked": false,
      "alt": "Person Lying on Bed Covering White Blanket"
    },
    {
      "id": 842292,
      "width": 3419,
      "height": 5128,
      "url": "https://www.pexels.com/photo/man-lying-on-brown-wooden-bench-842292/",
      "photographer": "Anastasiya Lobanovskaya",
      "photographer_url": "https://www.pexels.com/@annetnavi",
      "photographer_id": 5540,
      "avg_color": "#757873",
      "src": {
        "original": "https://images.pexels.com/photos/842292/pexels-photo-842292.jpeg",
        "large2x": "https://images.pexels.com/photos/842292/pexels-photo-842292.jpeg?auto=compress&cs=tinysrgb&dpr=2&h=650&w=940",
        "large": "https://images.pexels.com/photos/842292/pexels-photo-842292.jpeg?auto=compress&cs=tinysrgb&h=650&w=940",
        "medium": "https://images.pexels.com/photos/842292/pexels-photo-842292.jpeg?auto=compress&cs=tinysrgb&h=350",
        "small": "https://images.pexels.com/photos/842292/pexels-photo-842292.jpeg?auto=compress&cs=tinysrgb&h=130",
        "portrait": "https://images.pexels.com/photos/842292/pexels-photo-842292.jpeg?auto=compress&cs=tinysrgb&fit=crop&h=1200&w=800",
        "landscape": "https://images.pexels.com/photos/842292/pexels-photo-842292.jpeg?auto=compress&cs=tinysrgb&fit=crop&h=627&w=1200",
        "tiny": "https://images.pexels.com/photos/842292/pexels-photo-842292.jpeg?auto=compress&cs=tinysrgb&dpr=1&fit=crop&h=200&w=280"
      },
      "liked": false,
      "alt": "Man Lying on Brown Wooden Bench"
    },
    {
      "id": 1636016,
      "width": 4000,
      "height": 6000,
      "url": "https://www.pexels.com/photo/selective-focus-photography-of-sleeping-monkey-on-branch-1636016/",
      "photographer": "Edoardo Tommasini",
      "photographer_url": "https://www.pexels.com/@edotommo99",
      "photographer_id": 172670,
      "avg_color": "#6A5C29",
      "src": {
        "original": "https://images.pexels.com/photos/1636016/pexels-photo-1636016.jpeg",
        "large2x": "https://images.pexels.com/photos/1636016/pexels-photo-1636016.jpeg?auto=compress&cs=tinysrgb&dpr=2&h=650&w=940",
        "large": "https://images.pexels.com/photos/1636016/pexels-photo-1636016.jpeg?auto=compress&cs=tinysrgb&h=650&w=940",
        "medium": "https://images.pexels.com/photos/1636016/pexels-photo-1636016.jpeg?auto=compress&cs=tinysrgb&h=350",
        "small": "https://images.pexels.com/photos/1636016/pexels-photo-1636016.jpeg?auto=compress&cs=tinysrgb&h=130",
        "portrait": "https://images.pexels.com/photos/1636016/pexels-photo-1636016.jpeg?auto=compress&cs=tinysrgb&fit=crop&h=1200&w=800",
        "landscape": "https://images.pexels.com/photos/1636016/pexels-photo-1636016.jpeg?auto=compress&cs=tinysrgb&fit=crop&h=627&w=1200",
        "tiny": "https://images.pexels.com/photos/1636016/pexels-photo-1636016.jpeg?auto=compress&cs=tinysrgb&dpr=1&fit=crop&h=200&w=280"
      },
      "liked": false,
      "alt": "Selective Focus Photography of Sleeping Monkey on Branch"
    },
    {
      "id": 1444492,
      "width": 4167,
      "height": 2569,
      "url": "https://www.pexels.com/photo/close-up-photo-of-cat-lying-on-table-1444492/",
      "photographer": "Min An",
      "photographer_url": "https://www.pexels.com/@minan1398",
      "photographer_id": 206851,
      "avg_color": "#917358",
      "src": {
        "original": "https://images.pexels.com/photos/1444492/pexels-photo-1444492.jpeg",
        "large2x": "https://images.pexels.com/photos/1444492/pexels-photo-1444492.jpeg?auto=compress&cs=tinysrgb&dpr=2&h=650&w=940",
        "large": "https://images.pexels.com/photos/1444492/pexels-photo-1444492.jpeg?auto=compress&cs=tinysrgb&h=650&w=940",
        "medium": "https://images.pexels.com/photos/1444492/pexels-photo-1444492.jpeg?auto=compress&cs=tinysrgb&h=350",
        "small": "https://images.pexels.com/photos/1444492/pexels-photo-1444492.jpeg?auto=compress&cs=tinysrgb&h=130",
        "portrait": "https://images.pexels.com/photos/1444492/pexels-photo-1444492.jpeg?auto=compress&cs=tinysrgb&fit=crop&h=1200&w=800",
        "landscape": "https://images.pexels.com/photos/1444492/pexels-photo-1444492.jpeg?auto=compress&cs=tinysrgb&fit=crop&h=627&w=1200",
        "tiny": "https://images.pexels.com/photos/1444492/pexels-photo-1444492.jpeg?auto=compress&cs=tinysrgb&dpr=1&fit=crop&h=200&w=280"
      },
      "liked": false,
      "alt": "Close-Up Photo of Cat Lying On Table"
    }
  ],
  "total_results": 8000,
  "next_page": "https://api.pexels.com/v1/search/?page=2&per_page=10&query=rest"
}
